<?xml version="1.0" encoding="UTF-8"?>
<svg version="1.1" viewBox="0 0 28.747 28.747" xmlns="http://www.w3.org/2000/svg" xmlns:osb="http://www.openswatchbook.org/uri/2009/osb" xmlns:xlink="http://www.w3.org/1999/xlink">
    <defs>
        <filter id="filter6206-7" color-interpolation-filters="sRGB">
            <feGaussianBlur stdDeviation="0.658125"/>
        </filter>
    </defs>
    <g transform="translate(0 -1093.8)">
        <path transform="matrix(1.0781 0 0 1.0641 -.093733 2.7509)" d="m4.4177 1028.2v1.6051h-1.6052v18.192h1.6052v2.1402h18.192v-2.1402h2.1402v-18.192h-2.1402v-1.6051z" fill="#1a237e" filter="url(#filter6206-7)" opacity=".2"/>
        <rect x="2.9987" y="1096.8" width="22.749" height="22.749" rx="1.1973" ry="1.1974" fill="#2196f3"/>
        <g transform="translate(-22.32 1056.5)">
            <path d="m0 0h51.2v51.2h-51.2z" fill="none" stroke-width="1.0667"/>
            <g transform="matrix(.33601 0 0 .33601 1.5296 73.043)">
                <path d="m0 0h51.2v51.2h-51.2z" fill="none" stroke-width="1.0667"/>
            </g>
            <g transform="matrix(.37187 0 0 .37187 38.802 63.239)">
                <path d="m0 0h51.2v51.2h-51.2z" fill="none" stroke-width="1.0667"/>
                <g transform="matrix(2.6891 0 0 2.6891 -82.906 -48.45)">
                    <path d="m0 0h51.2v51.2h-51.2z" fill="none" stroke-width="1.0667"/>
                </g>
            </g>
        </g>
        <path d="m4.1958 1096.8c-0.66332 0-1.1979 0.5346-1.1979 1.1979v0.3334c0-0.6634 0.53459-1.1979 1.1979-1.1979h20.354c0.66332 0 1.1979 0.5345 1.1979 1.1979v-0.3334c0-0.6633-0.5346-1.1979-1.1979-1.1979z" fill="#fff" opacity=".2"/>
        <rect x="128" y="546.52" width="42.667" height="42.667" fill="none" stroke-width="1.0667"/>
        <rect x="128" y="631.85" width="42.667" height="42.667" fill="none" stroke-width="1.0667"/>
        <rect x="128" y="674.52" width="42.667" height="42.667" fill="none" stroke-width="1.0667"/>
        <rect x="128" y="589.19" width="42.667" height="42.667" fill="none" stroke-width="1.0667"/>
        <rect x="128" y="717.19" width="42.667" height="42.667" fill="none" stroke-width="1.0667"/>
        <rect x="213.33" y="546.52" width="42.667" height="42.667" fill="none" stroke-width="1.0667"/>
        <rect x="213.33" y="631.85" width="42.667" height="42.667" fill="none" stroke-width="1.0667"/>
        <rect x="213.33" y="674.52" width="42.667" height="42.667" fill="none" stroke-width="1.0667"/>
        <rect x="213.33" y="589.19" width="42.667" height="42.667" fill="none" stroke-width="1.0667"/>
        <rect x="213.33" y="717.19" width="42.667" height="42.667" fill="none" stroke-width="1.0667"/>
        <rect x="298.67" y="546.52" width="42.667" height="42.667" fill="none" stroke-width="1.0667"/>
        <rect x="298.67" y="631.85" width="42.667" height="42.667" fill="none" stroke-width="1.0667"/>
        <rect x="298.67" y="674.52" width="42.667" height="42.667" fill="none" stroke-width="1.0667"/>
        <rect x="298.67" y="589.19" width="42.667" height="42.667" fill="none" stroke-width="1.0667"/>
        <rect x="298.67" y="717.19" width="42.667" height="42.667" fill="none" stroke-width="1.0667"/>
        <rect x="170.67" y="546.52" width="42.667" height="42.667" fill="none" stroke-width="1.0667"/>
        <rect x="170.67" y="631.85" width="42.667" height="42.667" fill="none" stroke-width="1.0667"/>
        <rect x="170.67" y="674.52" width="42.667" height="42.667" fill="none" stroke-width="1.0667"/>
        <rect x="170.67" y="589.19" width="42.667" height="42.667" fill="none" stroke-width="1.0667"/>
        <rect x="170.67" y="717.19" width="42.667" height="42.667" fill="none" stroke-width="1.0667"/>
        <rect x="256" y="546.52" width="42.667" height="42.667" fill="none" stroke-width="1.0667"/>
        <rect x="256" y="631.85" width="42.667" height="42.667" fill="none" stroke-width="1.0667"/>
        <rect x="256" y="674.52" width="42.667" height="42.667" fill="none" stroke-width="1.0667"/>
        <rect x="256" y="589.19" width="42.667" height="42.667" fill="none" stroke-width="1.0667"/>
        <rect x="256" y="717.19" width="42.667" height="42.667" fill="none" stroke-width="1.0667"/>
        <rect x="128" y="759.85" width="42.667" height="42.667" fill="none" stroke-width="1.0667"/>
        <rect x="213.33" y="759.85" width="42.667" height="42.667" fill="none" stroke-width="1.0667"/>
        <rect x="298.67" y="759.85" width="42.667" height="42.667" fill="none" stroke-width="1.0667"/>
        <rect x="170.67" y="759.85" width="42.667" height="42.667" fill="none" stroke-width="1.0667"/>
        <rect x="256" y="759.85" width="42.667" height="42.667" fill="none" stroke-width="1.0667"/>
        <rect x="341.33" y="589.19" width="42.667" height="42.667" fill="none" stroke-width="1.0667"/>
        <rect x="341.33" y="631.85" width="42.667" height="42.667" fill="none" stroke-width="1.0667"/>
        <rect x="341.33" y="717.19" width="42.667" height="42.667" fill="none" stroke-width="1.0667"/>
        <rect x="341.33" y="546.52" width="42.667" height="42.667" fill="none" stroke-width="1.0667"/>
        <rect x="341.33" y="674.52" width="42.667" height="42.667" fill="none" stroke-width="1.0667"/>
        <rect x="341.33" y="759.85" width="42.667" height="42.667" fill="none" stroke-width="1.0667"/>
        <rect x="160" y="578.52" width="192" height="192" fill="none" stroke-width="1.0667"/>
        <g transform="matrix(.37344 0 0 .37344 4.7333 1097.4)">
            <path d="m0 0h51.2v51.2h-51.2z" fill="none" stroke-width="1.0667"/>
        </g>
        <g transform="matrix(.36471 0 0 .36471 5.1356 1097.4)">
            <path d="m0 0h51.2v51.2h-51.2z" fill="none" stroke-width="1.0667"/>
        </g>
        <g transform="matrix(.41585 0 0 .41585 84.325 1055.9)">
            <g transform="matrix(.062269 0 0 .062269 -28.238 185.29)">
                <g transform="matrix(38.618 0 0 38.618 14724 -13542)">
                    <g transform="matrix(.71436 0 0 .71436 -400.52 188.34)">
                        <path d="m1293.2-120.67c-181.75 0.2763-511.18 0.13525-699.05 0.13998-2.3216 10.413-3.593 21.251-3.593 32.384v114c207.65 0.73695 494.72 0.38136 706.23 0.3733v-114.37c0-11.18-1.2522-22.07-3.593-32.523zm-458.69 295.56c-78.385-4e-3 -158.85 0.17892-243.95 0.55995v138.63c286.34-0.39317 421.73-0.13827 706.23-0.32664v-137.75c-163.2-0.53005-311.22-1.1113-462.28-1.1199z" opacity="0" stroke-width="1.4932"/>
                    </g>
                </g>
            </g>
        </g>
        <path d="m24.549 1119.5c0.66325 0 1.1979-0.5346 1.1979-1.1979v-0.3333c0 0.6632-0.53461 1.1978-1.1979 1.1978h-20.354c-0.66325 0-1.1979-0.5346-1.1979-1.1978v0.3333c0 0.6633 0.53461 1.1979 1.1979 1.1979z" fill="#1a237e" opacity=".2"/>
    </g>
    <g>
        <image x="-101.93" y="134.62" width="83.143" height="84.27" image-rendering="optimizeSpeed" preserveAspectRatio="none" xlink:href="data:image/png;base64,iVBORw0KGgoAAAANSUhEUgAAAScAAAErCAYAAACcmEU6AAAABHNCSVQICAgIfAhkiAAAIABJREFU eJzt3Xt4VOWdB/DvmftkJsnknjCQBAyBAC4XYS1KoYiA0hVaFa3KSrF0u/Xep2BdK14WddV2C8Wl VroL+LRq0VYUUSsXSylyEUUuC4FAIOQ6uc4kM5mZzO3dPzDZBJJJ5sx75pyZ+X2e5zxc35nfzJx8 5z3nvO97BMYYAyGEKIxK7gIIIaQ/FE6EEEWicCKEKBKFEyFEkSicCCGKROFECFEkCidCiCJROBFC FInCiRCiSBROhBBFonAihCgShRMhRJEonAghiqSRuwCiLIwxtLS0oK2tDXa7HdXV1aisrERjYyM6 Ozvhdrvhdrvh8XiQmpqK/Px85OXlIT8/H8OGDUNRURGsVivS09MhCILcL4fEMQqnJMcYQ1NTE6qr q3Ho0CHs3bsXp0+fRlNTE9ra2uD3+4f8WIIgIDMzEyNHjsSECRMwY8YMTJkyBSNGjEB2draEr4Ik IoHWc0pO7e3tOH78OLZs2YI9e/agsrISXq+X+/OYTCaUlpZizpw5+O53v4uysjJkZGRwfx6SeCic kkgoFEJVVRW2bt2Kd999F0eOHJEkkAai1+sxceJEzJ8/H9/5zncwZswYmEymmD0/iS8UTkkgFArh 4sWLeP3117F582ZcvHhR7pJgNBpx3XXX4Yc//CHmzJlDh33kChROCYwxhtraWmzatAkbN25URCj1 5+qrr8aSJUvwve99D1arFWq1Wu6SiAJQOCUot9uNrVu3YvXq1Thz5ozc5QxJfn4+Fi9ejPvvvx+j R4+mkEpyFE4JJhQK4dSpU3j66afxwQcfRHS1TSkyMzOxfPlyPPjgg7BarVCpaDheMqJwSiButxu/ +c1v8NJLL6GlpUXucqJmtVrx8MMP47777kNWVhaNm0oyFE4J4uLFi3jkkUewfft2BINBucvhqrS0 FD//+c+xePFiGI1GucshMULhFOdCoRB27dqFH//4xzh//rzc5UhGpVJh4cKFeOmllzB69GjqRSUB OpiPYz6fD6tXr8aiRYsSOpiASyH83nvvYcaMGXjttddiOj6LyIN6TnHK4XBg2bJl2LZtG0KhkNzl xJQgCJg3bx7WrVuH0tJSucshEqFwikPnzp3D7bffjmPHjsldiqysVis2btyIefPmyV0KkQAd1sWZ PXv24Jvf/GbSBxMA1NXVYfHixXj11VeTrveYDKjnFEd+97vf4dFHH4Xb7Y7p8+bn52PChAnIzc1F VlYWcnJykJubi7S0NNjtdthsNjQ1NaGpqQmVlZUoLy+P6fgqvV6PBx54AM899xxdzUsgFE5xwOv1 4oknnsArr7yCQCAg+fONHDkS06ZNw3XXXYeZM2di9OjR0Ol0UKvVUKlU/V4pC4VCCIVCCAQCaGpq wt69e/G3v/0N+/fvx5kzZyQf3qBWq7Fs2TKsX78eOp1O0uciMcKIotXX17MFCxYwlUrFAEi2ZWRk sKVLl7I9e/awjo4O5vf7o649EAgwp9PJDhw4wJYvX86ysrIkfQ06nY49++yzLBQKcXjnidyo56Rg X375JZYtW4YTJ05I8vhqtRpTp07FXXfdhdtuuw35+fnQaKRZfzAQCMBms2HLli1444038NVXX0ny PGazGevXr8e9994ryeOTGJI7HcmVAoEAe/vtt1l+fr4kPQyVSsWmT5/O3n//fdbR0RHT1xYKhZjd bmebNm1io0ePluT15eTksH379sX0dRH+KJwUxu12s9WrVzOTycT9h1YQBFZWVsY2bNjA7Ha73C+V 2Ww2tmrVKkkO96ZMmcJaWlrkfokkChROChEKhdixY8fYrbfeyrRaLfcf1vz8fLZ69WpWV1enqHMy wWCQnTx5kt19991Mo9Fw7R0uX76cdXV1yf0SiUgUTgpgs9nY888/zwoKCiQ5hJs1axb7/PPPWTAY lPulDsjj8bDXXnuN5eXlcXvtWq2WPfHEEywQCMj98ogIFE4y8fl87NixY2zVqlVs7NixXHsN3ZvZ bGYrVqxgjY2Ncr/cIQmFQuzzzz9n119/Pberk3q9nv3oRz9iNptN7pdHIkRX6y7DGIPT6URrays8 Hg88Hg+8Xi88Hg8CgQDUanWfTaPR9GxarbbPn7s3n88Hp9OJjo4ONDQ04MCBAzhw4ADOnj2LpqYm SPERlJaW4vnnn8fChQvjbtxPc3MznnvuOWzYsIHLBF9BEDB+/HgsXboUN910E4qKipCamjpou1Ao hK6urp59oKurCz6fD36/Hz6fDz6fD4wxaLVa6HS6nl/NZjOysrIku/KZLJI6nPx+P2pra3Hu3DmU l5ejoqICZ8+ehc1mQ3t7O7q6unp2yK6uLgSDQahUqp7BiN2/ajSaKwKr95/9fj/cbjc6OzvR2dkp +VSLmTNnYv369Rg/fnzcLi3i8/mwbt06PPvss3C5XNweNy8vD3l5eSgsLMSIESNgMpmQkpIClUqF jo4OtLe392wul6vPPuDz+RAIBOD3+3t+7Q6n3l9QRqMRFosFI0aMwKhRo1BSUoJx48ahqKgIBQUF tPzwECVdODU2NuL48eP4+9//jv379+PcuXOor6+Py+VsLycIAm6++WasX78excXFcpcTtUAggN/9 7nd44okn4HA45C4nKikpKRg2bBhGjhyJa6+9FjNnzsTEiRORk5MTt18gUkuKcGpra8Px48fx7rvv 4tNPP0VFRUVChFFvKpUKt99+O9auXYuCggK5y+EmGAzijTfewIoVK9Dc3Cx3Odzo9XqMHj0aM2fO xMKFCzFlyhTk5OTIXZayyHOqKzZqa2vZunXr2NSpU5nBYOB+wlkpm1qtZvfddx9rbW2V+y2XRCgU Ym+//TbLzs6W/b2WYtNqtWzy5MnsF7/4BausrFT0VdVYSshwqqqqYqtXr2alpaVMEATZdz6ptyVL lrD29na533ZJBYNB9l//9V8sJSVF9vdbqk0QBFZcXMxWrFjBTp48mfQhlVDh5HA42KuvvsqKi4tl 39Fitc2cOTNpLpN7vV7205/+VJJhF0rbrFYre+GFF+JmGIgUEiKc/H4/+9vf/sZmz56dFD2l7m30 6NHs9OnTcr/9MeVwONitt96aFJ+zSqVi11xzDfvzn//MvF6v3G99zMV9ODkcDvbUU09JMhdNyVtm Zibbu3ev3G+/LC5evMgmT54s+2cQq02v17MHHniANTU1yf3Wx1TchlMoFGLnzp1j//RP/yT7zhPr Ta1Ws82bNytqjlysvf/++0n1hSQIAps+fTr74osvkuZzj8twCgaDbPfu3aykpET2nUaObdGiRczn 88n9McjK6/WypUuXyv5ZxHrLzc1lb7/9dlKcLI+7cAoGg+z9999P2MvKg23p6enszJkzcn8MilBe Xs6Kiopk/0xivZlMJrZx48aEn9AcV+EUDAbZli1bWEZGhuw7iFzbSy+9lDTd+qH49a9/LfkSxgNt KpWKaTQaptFoYn6CXqfTsbVr1yZ0QMXNCHHGGN555x0sX74cTqdTsufpnhtnNptRVlaG8ePHw2Qy IRAIIBgMIhAIoKWlBUeOHIHNZuuZZxULkyZNwoEDB2AwGGLyfPGgra0N3/72t3Hw4EFJn0cQBOh0 OhQVFWHKlCkYN24crFYrUlJSoFar0djYiJqaGlRXV6O6uhqnT59Ge3u7pDd2UKlUeOWVV/DjH/84 MafAyByOQ7Zv3z6Wm5srybeQIAgsNTWVLV68mP3xj39k5eXlQzqnU1tbyz788EP27//+72z8+PGS jr9RqVTsr3/9q/RvdBz605/+JMl7LwgC02q1bMKECWzVqlXs8OHDQ+6ptLe3s7feeovdeuutzGw2 S9az0ul07OOPP5b4HZZHXIRTZWUlGzt2rCQ/8FOmTGFr165l9fX1UdUYDAbZnj172NKlS1lqair3 WhcsWMDp3Uw8TqeTzZ07l+v7nZ6ezn7605+yo0ePRn3yubW1la1du5brQnq9N4vFwo4fP87p3VQO xYeT3W5nN954I/cPtLS0lP35z3/mcguky7W2trLnn3+e27kxrVbLjhw5wr3ORLJr1y6m0+mifq/N ZjN79NFHWU1NDfcam5qa2COPPMKMRqMk+3OiTWFSfDg9//zzXLvEaWlp7JlnnonJB1ldXc2WLVvG 9Hp9VDUvWbJE8lrjncfjYbfffrvo99hkMrH777+fXbhwQdILDt1rxd90003cT+Q//PDDCXWCXNHh dODAAa5DBubOnctOnz4d06tdwWCQ7du3j82aNUvUzmg2m5NuiopYn3/+OTObzRG9vzqdjn3/+99n Z86cienYIY/Hw5555hmuvSiNRsN27twZs9cgNcWGU3t7O5szZw6XD02lUrGHH3445vdo662zs5Ot WbOGZWZmDrluQRDYgw8+KFvN8cbn87Hly5cPeZ9YuHAhO3z4sCSH9kMRCATY1q1bmdVq5RZQZWVl irjtFw+KDadNmzZxuQJjMpnYb37zG0XcIigYDLIjR46wG264YUiHqtnZ2ayqqkrusuPKqVOnBv0C mDFjBtuxY4ciJtOGQiF24sQJdv3113MLqF/96lcJMRZOkeHU0tLCrrnmmqg/pIKCAvbJJ58obqi/ w+FgL7zwArNYLGG/2Z988km5S407gUCArVixot/3dMKECeytt95iLpdL7jKvUFNTw+bNm8clnEaO HJkQS60oMpx++9vfRt1rys7OZvv27VPsN0ggEGCfffYZmzFjRr/1FxYWsoaGBrnLjEtVVVVs2LBh DLh0aDx58mT2yiuvKP5wp6amhtuQiP/4j/9Q3JdypBQXTm1tbWzSpElRfTBpaWnsk08+kfulDElz czNbtWoVS0tL66lfrVazX/ziF3KXFreCwSB77bXX2H333ce2b9+u+FDq7eLFi1wCatSoUay5uVnu lxMVxYXTtm3bolrvW6vVsi1btsj9MiLi9/vZ7t272bRp0xgANnbs2IRdDzxWAoGAYnvNg6mqqmLf +ta3ogonQRDYH//4R7lfSlQUFU6hUIjdc889UX0gDz/8cNx2ZxsaGtjPfvYztnnzZrlLITI7ceJE 1EsCLVy4kHk8HrlfimiKmvh7/vx5zJo1C7W1taLaT548GZ9++iksFgvnymInGAwiGAzG3V16CV+M MWzfvh3//M//jPb2dlGPkZqaikOHDqGsrIxzdbGhkruA3vbs2YOGhgZRbU0mE9atWxfXwQRcWhWB gol03yD13/7t30Tf1tzpdOLjjz/mXFnsKCqcPv30U1FLTAiCgNtuuw3XX3+9BFURIg+NRoP7778f ixcvFv0Y+/btg8/n41hV7CgmnDo6OnD48GFRbdPT07FixYrEXNOGJLXU1FQ888wzGD58uKj2R48e RVtbG+eqYkMx4XTy5Ek0NjZG3E4QBNxxxx24+uqrJaiKEPmVlJTgJz/5iagv34sXL6KyslKCqqSn mHD66quv0NHREXG7lJQULFu2TIKKCFEGlUqFpUuXYtq0aRG3DYVCOHDggARVSU8x4XTq1CmIuXA4 btw4TJ06VYKKCFGOrKwsPPnkk6Iuloj92ZKbYsKpoqIi4jYqlQp33nmn6KsZhMSTOXPmYObMmRG3 q66uhsfjkaAiaSkinHw+H6qqqiJul5qairlz5/IviBAFSklJwT333BNxu7q6OklvCiIVRYSTzWYT 9eZlZ2dj7NixElREiDItWLAABQUFEbVpaGiAy+WSqCLpKCKc2tra0NXVFXG7qVOn0oBFklSysrKw aNGiiNp0dHTA6/VKVJF0FBFOHo9H1ODLb3zjGxJUQ4hyqdVq3HHHHRG1YYyhs7NTooqko4hwcrvd Ed+YUqvVorCwUKKKCFGuiRMnIjU1NaI2dFgnktvtjrjnpNfrkZWVJVFFhCiX0WjEmDFjImpD4SRS V1dXxOGk0+mQnZ0tUUWEKJdarY74i5mGEoik0+mgUkVWilarRVpamkQVEaJcgiDAaDRG1Eav10tU jXQUEU5GoxFqtTqiNuzSQnkSVUSIcoVCITgcjojamEwmiaqRjiLCyWAwiBrlTeFEklEwGERra2tE bVJSUiSqRjqKCKeMjIyIxysxxhAKhSSqiBDlijSctFotMjIyJKxIGooIp9zcXBgMhoja+P3+iLu2 hCSCQCAQ0RpNWVlZMJvNElYkDUWEk5g3z+v1il7Sl5B49r//+78RjfjOzc2lwzqx1Go1ioqKImrT 1dWF+vp6iSoiRLn27t0b0f/Pz8+nE+LRmDx5ckT/nzGGc+fOSVQNIcrU1dWFgwcPRtRm8uTJEQ89 UALFhNOkSZMiHk6wf/9+iaohRJncbje++OKLiNrMmDFDomqkpZhwKi0tjXhQZUVFhah1xwmJV4cO HYpon8/IyMCECRMkrEg6igqnvLy8iNp0dHTg2LFjElVEiLL4/X78/ve/j2h837hx45CZmSlhVdJR TDiZzWZMnz49ojZerxc7d+6UqCJClKWuri7im2SKWcFAKRQTTsClNZIjOe/EGMN7770Xl2vVEBIJ xhjeffdd2O32iNrNmDEjbu/nqKhwmjp1KnJyciJqU1NTgz179khTECEK4XA48Oabb0bUxmw2i7qd lFIoKpxKSkoiXt2yq6sLb7zxBs2zIwmLMYY//elP+OqrryJq961vfQtWq1WiqqSnqHBSq9W46667 Ip5n9+GHH+Lo0aMSVUWIvGw2G9auXRvxXNLvfe97cTm+qZuiwgkAZs2ahVGjRkXUxul0Ys2aNdR7 IgknFAph8+bNOHXqVETtCgsLceONN0pUVWwoLpzy8vKwYMGCiNowxrB169aIu72EKF1FRQVeffXV iNvdcsstcb9SrOLCCQBuvfVWpKenR9TG5XLh8ccfF3WLKUKUyOl04qmnnkJNTU1E7TQaDe6+++6I Z1wojSLDacqUKZg4cWLE7Xbv3o2NGzdKUBEhsRUMBvE///M/2Lp1a8Rtxf78KI0iw8loNOKee+6J eHXMUCiEp556iiYEk7h38OBBvPDCCxHfMg0A7r333rhcIuVyigwn4NKhnZj0b2lpwdKlS9He3i5B VYRIr7q6GitXrkRzc3PEbcvKynD33XfH7cDL3hQbTtnZ2XjooYeg1Wojbrt//3488sgjcXkLZpLc Ghsb8eCDD+LAgQMRtxUEAStXroTFYpGgsthTbDgBwKJFi3DttdeKavv666/jP//zP+Hz+ThXRYg0 7HY7fvKTn2D79u2i2k+cOBF33HFHQvSaAIWHk8ViwaOPPir6nltPP/00Xn75ZbqCRxTP6XTiZz/7 GbZs2SJqvJ4gCPj5z38elyteDogpnNPpZPPmzWMARG2CILDHH3+cud1uuV8KIf1qampi9957L1Or 1aL38+nTpzOfzyf3S+FK8eHEGGN/+ctfmNFoFP3BAWDf//73WVNTk9wvhZA+Kioq2MyZM6Pat1Uq Ffvkk0/kfincKfqwrtvs2bOxZMmSqB5j8+bNmDNnDg4ePEjTXIjsGGPYt28fFixYEPENCy63ZMkS zJ07l1NlyiGwOPlJbWhowPz583HixImoHic1NRWrVq3C/fffn1jH5yRudHR04Je//CXWrl0Lp9MZ 1WMVFxfjyJEjcXnTzEHJ23GLzK5du5jZbI6qC9y9jR07lr399tsJd5xOlG3btm1szJgxXPZhjUbD du/eLfdLkkxchVMwGGRPP/00lw8WX58s/+Y3v8l27NjBAoGA3C+PJLATJ06w73znO1Gd9L58312x YoXcL0tScRVOjDFmt9vZ7NmzuQVU9zfQ7Nmz2V/+8hcKKcLVhQsX2A9/+ENmMBi47rOTJ09mLpdL 7pcnqbgLJ8YYO3r0KMvLy+P6YQNgOp2OzZkzhx08eFDul0jiXGNjI3vsscdYeno69/00IyODHT58 WO6XKLm4DKdQKMQ++OADST747g//xRdfpLFRJGJ2u529+OKLLC8vjwmCwH3fNJvNbOvWrSwUCsn9 UiUXl+HE2KXzT2+99RYzmUySBJRGo2E33XQTu3DhgtwvlcQBl8vFXn31VXbVVVcxlUolyT5pNBrZ pk2bWDAYlPvlxkTchhNjjAUCAbZhwwam1+sl2RkEQWDTp09nNTU1cr9UolA+n4+99dZbbNKkSUyj 0UiyHwJger2erVmzJqnOicZ1ODF2aef45S9/KdmOIQgCu/3225nX65X7pRIF+uqrr7if7L580+l0 7Kmnnkq6YS+RreamQFqtFg8++CBcLheee+45UYtzhcMYwwcffIA33ngD9913H9fH7q2jowOfffYZ qqurodPpMG7cOEybNg0qVVwM4lcEn8+Hw4cP4/Tp0/D7/SgqKsKsWbMkXXhtx44dki7No9Pp8NBD D+GJJ54QtXxQXJM7HXnxer3slVde4TZI8/Jt/PjxrL29XZLabTYbu/nmm3u+gQVBYBaLhT322GNJ c34hWh6Ph61cuZKlpaX1fGYGg4HdeOONrLW1VZLn9Pl87LbbbpOsx2Q2m5P6wkzChBNjl06Sb9u2 jVmtVu47ilarZZs2bZKk7nXr1vV7ZcdoNLLt27dL8pyJ5ssvv+z34oggCOzRRx+V5DntdjubMmWK JMFktVrZH/7wh6Q7lOstoY4ZVCoVbrnlFuzcuRM333wz10Miv98vyZ2F/X4/du3a1e/jejweRd6w weVy4be//S3+8Ic/KGatrP3796Ozs/OKv2eM4c0334x6Dlt/3G43qqqquD6mWq3GnDlz8N577+Gu u+5KvkO53mQOR8l0dHSwF198kWsvymKxsIqKCq51OhwONn369LDP6XQ6uT5ntF5++WWm1WqZ0Whk L774IvP7/XKXxFauXDnge6hWq9nHH3/M/Tm/+OILrmOZCgoK2DPPPMNaWlq41xqPEqrn1Ftqaioe e+wx7Ny5Ez/60Y+QlZUV9WM6nU7s27ePQ3X/r6urCy6Xa8B/d7vdOHPmDNfnjIbdbsfGjRvh9/vh 8XiwZs0aVFRUyF1Wv72mbqFQKOrVLPpTXl7OpSdtsViwdOlSfPzxx3jyySe57KuJIGHDCbi0dGlZ WRnWr1+PHTt2YOXKlRgzZozow71gMIhDhw5xrzHcms/BYBCnT5/m+pzR2L17N86fP9/z58bGRrzz zjsyVnRJuMMfxhhOnjzJ/TnLy8ujal9YWIgHHngAH330ETZs2ICJEyfG/Y0weUrocOqmVqsxZcoU vPzyy9i1axfmz58vehH4AwcOcD3vpFKpwt6fLxgMora2ltvzRWv//v1X3DRi586dYXt/sTDYcIHq 6mquzxcKhaI633T11Vdj27ZtWLduHaZPnw6dTsevuASRFOHU2/Dhw/Hss8+KXpzrwoULqK+v51aP VquFwWAI+3+ampq4PV+0vvjiiyv+7uLFi7DZbDJU8/+GDRsW9t/F3AMuHI/Hg4aGBlFtBUHA448/ jokTJ9I4tjCS8p2ZNGkSJkyYIKqt1+vFkSNHuNViNBqRlpYW9v80NjZye75o2O32fu+m3NDQwL1n EqkRI0aE/XfeAe/xeEQH8vDhwzFr1iyu9SSipAwnrVaLRYsWiTq08/v9OHz4MNdasrOzw/4fu93O 7fmiUVNTA4/Hc8XfB4NBnD17VoaK/p/Vag37eTocDq7P53a7RYfTzJkzkZeXx7WeRJSU4QQA06ZN g9lsFtX2888/51pLQUFB2H9Xyo1BW1paBqxF7sM6i8US9vMMBoMIBoPcnq+trU104M2YMSPseUZy SdKG01VXXYXMzExRbXlf2k+EcJL70DMlJWXQHqjf7+f2fBcuXBB988upU6dyqyORJW045efno7Cw UFTb5uZmtLe3c6tlsHDi+UMVjebm5gEnVst90t5oNA46Pojn+9h7OEUkCgoKBj0/Ri5J2nBSqVSi v8ECgQDXaQvxEk6tra0D/psU00MiMZRw4tkDvXDhgqh2ZWVlSE1N5VZHIkvacAKAqVOnijopHgwG Re+c/cnOzg47iFAph3X9nQzvxvN8jhh6vR45OTlh/w+vkPf7/aipqRHVdvz48TAajVzqSHRJHU6l paWwWCwRt+MdTkajMWwdSuk5hZvkGwqFEAqFYlhNX4IgYPjw4WH/D6/3sbOzU/Q5tmnTpokeAJxs kjqcRo4cOei3bX8YY6isrORWR0pKStiT80rpOSk5nIDBxzrJHU7RnEpIRkkdTllZWbjqqqtEte1v MKJYRqMxbDjFQ8+JXVobLIbVXClcz4kxxi3k3W63qHAqKipCbm4ulxqSQVKHE3Cpmy0G73AKN51G KeEUbglkjUYj+9idWB3WNTQ0hD3/NpDx48fDZDJxqSEZJH04jRs3TlS7uro6bmtH63S6sN+oSpl/ pdfrB/y3lJQU2c+lZGRkhB2Iyet9FDuMYPTo0WHfQ9KXMvZ6GVmtVlHfZsFgkOsEYKvVOuC/DTYx OFbC/WAp4fK4wWAYcCCmIAjc3kex4VRaWsrl+ZNF0odTbm6uqCt2jDHRs9L7Ew/hFK4OsVOBeDIa jWFHifN4Hxljoq/UUjhFhsJJZDiFQiGu88niIZzC9ZyUEE4GgyHs1Vceh1Rer1fUl5JKpUJJSUnU z59Mkj6c0tPTRV1BiWXPSSnnKcKFpBKWlh1sICaPkO/s7ERLS0vE7fLz8wddGof0lfThJAgCRo8e HXE73uFksVgGPPellJ5TuB6mEuaLCYIgeQ/U7Xajra0t4nbFxcW02mWEkj6cAPHnAniGk8FgGLD3 oZRwysjI6HeN66GMzo6VgVbE5DXUwe12h51jOJCioiIKpwhROAEoKSkRdRmc59W6cBNXpbyddiQs Fku/cwBNJpPo5Wd4G6gOXu9ha2sr3G53xO1GjRol+ziweEPhhEurAoi5FM4znAwGw4A/WEpZNTEj I6PfH7DBFnqLpfT09H7/ntfIbLE3m6ArdZGjcMKlVQHE3PCAZzjp9foBz+kMtqRKrAzUc7JYLIoY 5wQMfF6M13sodjUCCqfIUTgByMnJEXVY4nA4RHXx+6NWq/v91lepVIoWmVW8AAASVklEQVTqOSk9 nAbqOQ12d5ahEtNz0mg0GDlyJJfnTyYUTrg0RkfMNyvvK3b9BaSSwik7O7vfw7esrCzFrFFkNpv7 PfTk0XNijIkKJ7GzEJIdhRMuXW0SM0COdzj1d2ipUqmQn5/P7TmiodFo+l3aePjw4bLPq+um0Wiu OPktCAKXcPJ4PKKu1I0aNSrsYoKkfxROXxPb7eZ53knpPScA/S4xo4QxTt00Gs0VvTtBELi8h52d naLGOBUWFtKVOhEonL4m5mYHsTisM5lMiuk5AfERTpcfQqlUKowaNSrqx+7s7BR1D8Hhw4f3Oz6M hEfh9LW8vDxR00SkDqerr75aUYP3iouL+/ygKWkAJtB/z0mv14u+w3NvLpdLVDiJvctPsqNw+prF YhnwSk849fX13FaA7C+crrnmGi6PzYvVau1z8ttsNitmACZw6Q7Klw8nKCkp4TKvzW63o7OzM+J2 RUVFUT93MqJw+lp6erqocOLZc0pPT+9zbkKtVmPSpEncHp+HwsLCPiecc3JyFDWhVafTXRFOvNbt rq2tFfVFRD0ncSicviY2nHj2nC6fX6fX6/EP//APXB6bF6vV2ueHX+ySM1LRaDR9zoGpVCpMmTKF y2OLGYCp1Wq5jbFKNhROXxN7eMKz52Q2m1FcXNzz55KSEpSVlXF7fB60Wm2f0c7Dhg1TzNQV4NI5 sG9/+9s9QxtSUlJw4403cnlsMWOc8vLyFHXOMJ5QOH1N7IldnqPE09PTsXTpUhgMBphMJjz00EOK HB/Te931kpISxaxx3u0b3/gGZs+eDY1Gg+9+97tcpo6IHYBJV+rEo8EXvUQznEDMmlD9+cEPfoDh w4dDp9Nx+8bnbdy4cRAEAYwxRc4ZS0tLw5tvvok9e/Zg3rx5XB7T6/WKWmSOwkk8CqdexF5Vqa+v 5xZOOp0Ot9xyC5fHkkpxcTFMJhM6Ozu5vW7e8vLycOedd3J7PKfTCYfDEXE7q9WquJ5lvKBw6mXE iBE9PYJI8BwlHg8KCwt75rApafS6lFwul6hwKiwsVMzUnnhD4dRLZmYmzGYznE5nRO2SLZx6X7FT 0jACKTmdThqAGWPU3+wlLS1N1GVxnlfs4oFOp0NJSUlSLdrvcDhEDcCkcBKPwqkXseFks9kQCoUk qEi5xo8fn1RLgYgdz0ajw8Wjw7peouk58RqIGS/Gjx+fNMEEQNQ9ClNTU0WtsEouoXDqRa/XizrB 291zSqZLxkVFRUn1gycmnLovsBBxKJwuE+6+ZwNJxp5TYWGhYm72GQtiwmn48OE0jCAKFE6XEbN2 Uvco8WSappBMl8gZY2hsbIy4XX5+ftK8R1KgWL+MmHBijKGurk6CapRLpVIlzQ+e2+1GR0dHxO3y 8/Op5xQFeucuI3bVSbH3MyPK19nZGfHYN0D8vkQuoXC6TFZWlqjJtsnWc0omnZ2dcLlcEbdTyv0G 4xWF02VMJpOoe7BRzylxie05UThFh8LpMikpKaJGPTc0NCTdQMxk4XK5KJxkQOF0GZPJJCqc6uvr KZwSlN1uh8/ni7gdhVN0KJwuE03PKRgMSlARkZuYMU5paWlJNYJeChROlzEajaJvdEA9p8QkJpyo 1xQ9CqfLqFQq5ObmRtyuqakJfr9fgoqI3MSEEw3AjB6FUz/EjE/x+XxoamqSoBoiN+o5yYPCqR9i B8/RWKfEEwqF0NzcHHE76jlFj8KpH2K/9WisU+Kh0eHyoXDqB01hId1cLlfEo8MFQaDDOg4onPph sVhgMBgibsfz7r9EGcSEE0A9Jx4onPoRzXACGuuUWKjnJB8Kp34YjUZRAzFrampoOEGCcTqdom5s QD2n6FE49cNoNIqa/FtdXY1AICBBRUQura2tEX/haLVaZGVlSVRR8qBw6oder4fZbI64XWNjo6hv WaJcYm77lZmZSYvMcUDvYD/EhlMwGERVVRX/gohsxFyBzc7OlqCS5EPh1A+NRiPqhDgAVFZWcq6G yEnMwFoKJz4onAYg9pwBhVPiELs2PIUTHxROAxC7g1VVVdHqBAnC7XbDbrdH3I7CiQ8KpwGI7TnV 1NSIWpiMKE97e7uoqSsUTnxQOA1A7A5G4ZQ4HA5HxOEkCAINI+CEwmkA1HMiYnpOgiAgMzNTooqS C4XTALKyskQteeF2u0WNjSHKY7fb4Xa7I2pDPSd+KJwGYDQaYTQaRbU9f/4852qIHOrq6iKeyE3h xA+F0wDEDsQEaDhBojhz5kzEbeiwjh8KpwHo9XpR8+uASzs1DSeIf6dOnYq4DfWc+KFwGkA0Paez Z8/C6/VyrojEUkdHh6ipKxqNBhaLRYKKkg+F0wCi6TmdPXsWHo+Hc0UklhoaGtDW1hZxO5r0yw+9 iwOIpudUX1+PlpYWzhWRWLLZbKLCiQ7p+KFwGoBWqxW14Bxw6Y4dJ0+e5FwRiaXz58+L6v3S6HB+ KJwGEO1VlxMnTnCshsSa2C8XCid+KJzCyMjIEN22vLycVsWMU4wxUVfqADqs44nCKQyxh3XApbFO tCpmfGpubsa5c+dEtRW7Dhi5EoVTGGKv1gGXzlmIuaUQkV95ebnoKUjRfKGRviicwogmnNra2nDx 4kWO1ZBYOXTokKgvFkEQotpnSF8UTmFE+y24d+9eTpWQWGGM4a9//auothROfFE4hRHtjnbgwAF0 dXVxqobEQkNDA8rLy0W1ValUFE4cUTiFEe2O9uWXX6KxsZFTNSQWjh07hqamJlFtBUEQPXCXXInC KQyz2SxqTadudXV1+OCDD2gScJxgjOGdd94RPfWIDuv40shdgJJptVoYDIao5smtXr0aer0eixYt QnZ2dlRhR6R14sQJfPTRR6Lb02EdX9RzCkOr1YpecK5bY2Mj/uVf/gU33HADVqxYgQ8//BC1tbVw u90RL2RG+AsGg2hpacEnn3yCf/3Xf43qMJwO6/gSGP2EDKi2thbTp08XtXRGOJmZmZg0aRKuvfZa TJ06FWPGjEFubi4MBgMMBgO0Wi3X50tmjDEEAgEEAgH4/X74fD7Y7XacPn0a5eXlOHXqFD777DNU VlZG/WWRkpKCmpoaWmyOEwqnMGw2G2bOnImzZ89K+jzdC5QVFRWhuLgYV111FcaOHYvCwkJYrVZk Z2dDo9FAq9X2/Bqvy3IwxhAKhRAMBhEKhfpsjLEBt1AoBL/fj66uLvh8vj6b1+vts3V1dcHtdqOl pQWNjY1obW1FW1sb2traYLPZYLPZJOm1ms1mtLa2QqfTcX/sZETnnMLQaDRRH9YNBWMMLS0taGlp wZdffnnFv+v1euTm5iIvLw+5ubnIzc1FQUEBcnJyYLFYkJGR0fNrRkYGUlNToVaroVKpoFKpIAhC nw1Av383UG29f98dIpeHSjAYhMfjQUdHx4Bbe3s7XC5Xn62zsxMulws+nw9+v3/ALR7mKRoMBgom jiicwohVOA2mq6sLNTU1qKmpGdL/V6vVSE1NRXp6OkwmE3Q6HfR6fZ+t9991/0D17qX013vp6urq N1i6fx8PASIlmrrCF4VTGDxOiMshGAzC4XDA4XDIXUpSoXDiKz5PXMSIUnpOJD5QOPFF4RSGRqNB SkqK3GWQOEHhxBeFUxhqtZrCiQwZhRNfFE6DMBgMcpdA4gR9kfFF4TQIGhBJhoqGEfBF4TQI2uHI UNG+wheF0yBohyNDRfsKXxROg6DDOjJUFE58UTgNgnY4MlS0r/BF4TQI2uHIUNG+whdNXxlENDvc rFmz8IMf/IBjNURqTz75JKqrq0W1pVMAfFE4DSKaHc5qtWLJkiW0+mUc+dWvfiUqnARBoHDijA7r BhFNz8ntdif9TP1kQuHEF4XTIKIJp87OTvj9fo7VEKWinhN/FE6DiGaHozWOkgeFE38UToOItudE 4ZQcBEGgq3WcUTgNgs45kaGinhNfFE6DoMM6MhR0WMcfhdMgog0nOiGeHARBgFqtlruMhELhNIho xijRYR0h4lE4Scjv98PtdstdBiFxicJpENHefLG9vZ1TJUTp6P60fFE4Sayjo0PuEgiJSxROEqOe U3LovvEo4YfCaRB0WJdcovm8KZz4onCSGIVT/Oi+5TpRBgoniVE4xQ+/349gMCi6PfWc+KJwGkS0 O5zD4eBUCZGaz+dDKBSSuwzyNQonidHVuvjR1dVFPScFoXCSGM2vix8+n4/CSUEonCRG8+viR7Sf FS3HzBeF0yA0muiWWXe73RROcaKlpQUej0dUW1qVgD8Kp0FEu4AYhVP8aG1thdfrFdWWFpvjj8Jp ENF+G9JhXfxobm4WPc5JEATo9XrOFSU3CqdB8Og50Qnx+FBbWyu6LfWc+KNwGkS0PSc6rIsfx48f F92Wwok/CqdBRLvD0WFdfPB4PDh69Kjo9nRYxx+F0yA0Gk1Ul4i7urpEn2QlsVNRUYHW1lbR7ann xB+F0yBUKlXUa0PTKHHlO3z4cNTzICmc+KJwGoRKpYp6p6P5dcpmt9uxadOmqEaHq1QqpKSkcKyK RDfCMAnodDpYLJao1gJ//fXXUVNTgxEjRiArKwsZGRmwWCywWCwwGAwcqyXhMMbQ2dmJ9vZ2NDU1 ob6+HocPH8b27dujOt8EAAaDAZmZmZwqJQAgMJoQFFZraytmz56NEydORP1YgiDAZDIhLS0Nqamp SE9PR25uLgoLC3u2YcOGwWKxID09HRaLBWlpaVCpqIN7uUAggK6uris2r9eLzs5OOBwO2Gy2Pltj YyOcTidcLhdaW1vhcDi4rUIwceLEqAOO9EU9p0EYDAZkZ2dzeSzGGFwuF1wu14D/R6PRID09HWlp aUhPT0dGRgasVivy8vKQmZnZZzObzTAajTAYDDAYDFCr1UPa+jvB373MbO8tFApF9PeDtQkGgwgE AggEAvD7/X1+7/f74fV64fF44PF44Ha7e37vdDrR0dHRszmdTrjd7j6h5PP5esLJ7XbH/CJEYWFh TJ8vGVA4DcJoNKK4uDhmzxcIBNDa2jqkK0c6nQ5GoxEpKSkwGAzQarV9Qkij0fT7Z41GA41GA8YY gsFgT6BcHiy9/zzQ7yNp1zuIurfeQRXPJkyYIHcJCYfCaRAqlQrXXHMNNm3aJHcpV/D5fPD5fLTa psx0Oh2mTZsmdxkJh05mDME//uM/0q2myYBMJhMmT54sdxkJh8JpCEpLSzFp0iS5yyAKdf3116Oo qEjuMhIOhdMQpKWl4Y477pC7DKJABoMBy5cvp4XmJEDhNASCIGDJkiUoKyuTuxSiIIIg4IYbbsD8 +fPlLiUhUTgN0bBhw7BmzRqYTCa5SyEKMWrUKPz617+mgbQSoXCKwNy5c/Hf//3fyMrKkrsUIiNB EDBhwgT8/ve/R0lJidzlJCwKpwioVCrceeed+PDDDzFr1iya6JmEzGYz7rzzTnz00UeYPn263OUk NJq+IlIwGMRHH32EDRs2YO/evejs7Ixq4ihRLo1Gg9TUVMyfPx+PPPIIrr32WjoBHgMUThw0Nzdj x44d+Pvf/45Dhw6hoqKi5+6xdAfZ+CIIAtRqNbRaLYqKinDdddfh5ptvxuzZs+lwPsYonCTgcDhw 8uRJnD9/HhcuXEBlZWXP1tLS0mdKB4k9QRB6NqPRiMLCQowaNQojR47EqFGjMGHCBEycOBE5OTly l5rUKJxirL29HRcuXOgJrtra2j6bzWaL+3lmSiEIAjIyMjBs2DBYrVaMGDECI0eORHFxcc+Wn59P qz4oFIWTgnRPjrXZbKipqekTWnV1dairq0N9fT0aGhqSeulfQRCQmpqKgoICFBQUYNiwYT2/dgdR 998ZjcaeNiS+UDjFgf6WH2ltbUV9fX1PaNXV1cFms6GhoQENDQ2w2Wxobm6Oq16YXq9Hbm4ucnNz kZeX1/P7/Pz8nq2goAB5eXkwm819Ds+o95N4KJwSSPcJ+O7N5/OhsbGxp8fV/Wt3cLW3t8PhcKC9 vR0dHR2ibyg5EJ1Oh9TUVKSlpSEtLQ2ZmZnIzc1FTk4O8vLy+gROfn4+MjIyoFKprthIcqJwSjK9 13DqvQWDQbjdbtjtdjgcDni93j6LuHX/GggEetaD0mq1PZtGo4HBYEB6enrPZjAYrgiacAveEdIb hRMhRJGoz0wIUSQKJ0KIIlE4EUIUicKJEKJIFE6EEEWicCKEKBKFEyFEkSicCCGKROFECFEkCidC iCJROBFCFInCiRCiSBROhBBFonAihCgShRMhRJEonAghikThRAhRJAonQogiUTgRQhSJwokQokgU ToQQRaJwIoQo0v8B3NKz3E7FPmIAAAAASUVORK5CYII= "/>
        <path d="m14.368 7.7933c-1.5122 0-3.0243 1.0074-2.6882 3.0237-3.3605-1.3442-4.7035 4.7055-0.67096 4.7055l0.67096 5.3764h5.3764l0.67315-5.3764c4.0326-1.1e-5 2.6873-6.0497-0.67315-4.7055 0.33605-2.0163-1.176-3.0237-2.6882-3.0237z" fill="#fff"/>
    </g>
    <g display="none" fill="none">
        <rect transform="rotate(90)" x="7.8232" y="-20.923" width="13.1" height="13.1" display="inline" stroke="#000" stroke-width=".070382"/>
        <rect x="7.2241" y="8.6528" width="14.298" height="11.441" stroke="#5261ff" stroke-linecap="round" stroke-linejoin="round" stroke-width=".069589"/>
        <rect transform="rotate(90)" x="7.2241" y="-20.094" width="14.298" height="11.441" display="inline" stroke="#0f0" stroke-linecap="round" stroke-linejoin="round" stroke-width=".069589"/>
    </g>
</svg>
